3051
11
0.02
 212  224  268  280  208  228  256  232  268  248 
 232  236  240  264  264  224  248  240  220  228 
 204  252  252  248  224  236  248  312  260  236 
 248  216  256  216  244  228  232  260  236  260 
 300  220  208  208  252  236  256  228  208  236 
 232  216  236  220  248  252  240  256  272  260 
 252  268  232  236  252  240  228  236  236  224 
 256  276  264  256  260  268  244  244  288  236 
 212  244  244  260  260  196  248  236  260  232 
 260  224  268  212  216  236  236  268  212  204 
 216  204  188  244  236  224  236  224  244  228 
 196  216  204  204  248  216  232  200  228  196 
 192  232  220  232  216  216  212  260  212  248 
 200  288  208  216  176  208  204  252  236  228 
 212  216  196  248  236  224  204  212  204  204 
 228  228  220  212  216  224  220  196  252  220 
 216  208  256  240  200  268  216  240  216  236 
 220  268  220  212  196  216  212  232  212  208 
 220  228  216  208  212  236  232  244  220  268 
 220  184  216  220  204  216  248  252  248  212 
 204  204  240  208  192  232  212  236  204  248 
 244  244  232  232  212  212  236  224  252  224 
 212  220  212  216  228  232  240  256  228  232 
 228  264  232  252  232  244  224  244  228  240 
 212  264  244  276  244  232  236  224  228  204 
 232  228  268  252  228  228  248  208  240  248 
 268  248  216  228  216  240  252  220  200  328 
 272  264  252  252  244  264  252  232  236  264 
 224  232  260  280  268  236  256  244  224  228 
 216  240  212  248  248  208  268  268  212  260 
 248  248  228  280  252  312  228  240  280  228 
 312  260  240  264  228  248  264  232  228  232 
 248  240  232  272  260  264  256  244  240  228 
 264  272  240  300  252  236  264  276  244  240 
 292  244  240  260  240  244  276  284  288  224 
 240  228  276  364  244  336  256  244  268  252 
 244  308  272  260  280  268  252  248  256  280 
 276  280  312  276  300  276  316  308  288  276 
 268  272  232  288  268  228  296  284  284  276 
 280  276  332  288  296  300  256  264  288  284 
 256  284  284  260  256  240  284  264  272  288 
 268  228  256  268  296  264  316  292  264  260 
 304  296  292  272  260  264  284  280  288  276 
 264  312  316  288  288  284  264  260  264  324 
 300  240  280  284  284  264  264  284  272  280 
 268  264  248  280  292  276  276  268  300  272 
 276  240  288  260  244  240  244  244  300  264 
 248  292  284  284  276  264  268  288  308  268 
 256  284  260  252  256  256  268  256  268  272 
 284  284  272  236  296  244  252  276  252  292 
 276  256  320  268  248  232  268  272  280  276 
 312  308  240  300  240  260  276  300  276  300 
 252  296  280  272  288  252  264  260  244  260 
 280  256  292  248  248  264  256  292  268  300 
 292  252  296  328  232  300  284  280  268  284 
 288  328  272  264  280  272  280  284  284  288 
 316  284  288  264  292  240  264  272  252  268 
 368  248  296  288  276  316  304  272  292  252 
 300  260  260  340  252  272  272  268  276  276 
 280  264  276  284  236  300  312  248  264  228 
 240  256  300  292  272  248  268  292  332  292 
 252  272  308  260  284  260  276  268  284  304 
 252  252  288  264  352  300  260  288  284  312 
 316  268  288  252  284  312  284  284  264  320 
 300  264  248  312  300  280  248  280  268  260 
 256  288  276  280  320  292  240  272  260  248 
 288  332  248  288  296  300  284  256  288  272 
 268  280  356  344  280  296  268  292  292  300 
 316  260  276  308  276  272  312  288  292  288 
 300  288  284  316  360  324  320  340  396  384 
 448  432  380  404  432  364  384  376  344  344 
 280  332  268  280  296  280  260  256  300  280 
 296  324  304  296  316  316  280  348  288  328 
 356  388  340  348  368  400  336  344  300  328 
 296  288  300  252  272  260  280  280  288  276 
 252  304  264  284  272  264  268  280  292  280 
 276  300  268  316  316  280  292  280  272  320 
 344  316  264  304  292  280  300  276  292  260 
 284  332  280  284  280  272  332  264  244  296 
 260  288  284  280  280  268  316  272  268  320 
 308  272  308  288  288  296  292  260  260  264 
 292  272  272  292  324  304  304  276  272  280 
 352  288  284  280  268  300  332  324  296  324 
 288  332  292  284  308  352  280  276  308  292 
 304  280  312  312  320  300  312  304  332  320 
 308  320  296  356  320  324  320  356  344  324 
 372  340  368  364  368  364  360  384  376  380 
 424  384  456  412  380  404  404  384  360  368 
 408  300  296  324  316  292  312  292  324  300 
 308  292  292  292  308  284  312  280  284  280 
 264  320  308  292  304  276  284  300  284  304 
 300  276  356  300  304  288  280  312  296  296 
 296  296  288  308  292  272  300  352  316  296 
 272  324  288  304  288  276  272  292  280  292 
 288  268  268  324  288  300  336  264  276  276 
 280  296  276  244  284  284  308  264  304  360 
 280  292  240  308  248  308  276  308  348  296 
 304  268  284  288  292  248  288  328  284  284 
 296  276  284  248  268  284  328  272  260  292 
 304  280  256  272  316  276  312  280  304  312 
 280  292  276  300  328  256  312  304  324  320 
 312  292  304  340  364  304  324  320  328  276 
 336  304  288  272  332  336  268  264  264  280 
 284  288  292  272  308  332  260  272  292  292 
 288  308  296  304  296  364  264  320  272  292 
 260  280  304  324  304  260  304  308  284  316 
 296  272  292  292  324  340  364  364  372  420 
 524  480  536  584  636  652  584  556  560  464 
 428  416  368  320  340  300  316  288  292  264 
 348  260  284  272  288  288  332  320  300  296 
 316  280  304  252  304  260  288  272  280  272 
 296  276  296  276  284  256  260  260  264  300 
 292  280  304  332  296  292  316  256  292  316 
 252  292  284  284  284  300  272  300  296  248 
 280  288  284  304  288  296  300  292  272  312 
 304  316  300  288  264  304  256  308  272  292 
 256  316  284  300  312  256  312  320  328  328 
 272  336  336  300  320  292  272  308  288  260 
 284  284  276  304  276  284  272  316  304  292 
 244  300  288  304  268  260  288  280  356  324 
 364  360  280  304  280  292  324  280  316  296 
 280  336  332  296  360  292  276  284  260  296 
 276  288  312  276  316  256  252  344  264  264 
 296  288  244  312  328  260  280  312  280  284 
 264  280  316  292  336  284  272  320  308  356 
 328  332  328  312  312  272  320  348  328  288 
 304  300  312  336  336  288  308  344  332  352 
 364  356  400  348  372  360  336  348  336  324 
 400  384  308  360  356  376  384  412  372  380 
 328  304  336  324  320  296  332  328  300  308 
 304  328  300  320  272  264  300  276  260  324 
 296  284  304  288  308  292  288  284  288  276 
 252  284  264  288  272  288  304  288  284  252 
 296  296  288  300  312  296  320  280  272  284 
 296  284  276  288  248  280  280  284  284  268 
 320  296  296  256  312  308  288  304  260  336 
 256  292  316  280  308  300  268  308  296  300 
 328  352  284  280  332  316  340  276  272  360 
 264  272  300  320  264  276  296  280  292  264 
 308  308  256  276  288  268  260  300  272  280 
 292  276  272  288  292  276  316  312  280  264 
 268  304  312  276  316  264  324  288  288  256 
 292  276  288  320  260  268  320  260  296  344 
 324  296  280  296  304  312  328  300  300  276 
 292  280  268  288  272  276  296  288  296  300 
 308  296  260  300  284  304  296  328  300  284 
 284  276  280  332  336  292  300  276  284  268 
 252  304  284  248  328  276  280  300  336  276 
 268  256  280  264  276  292  328  320  272  292 
 264  300  288  340  264  300  276  296  296  300 
 316  256  264  284  308  324  300  272  300  280 
 296  312  296  260  280  296  268  348  316  248 
 300  292  296  304  324  280  252  276  288  284 
 268  248  304  308  292  280  264  256  300  280 
 284  292  288  332  324  272  280  312  324  288 
 316  284  308  312  280  304  292  300  296  304 
 300  276  332  308  280  304  300  324  276  336 
 276  328  308  288  336  320  280  276  292  316 
 300  304  300  312  324  292  280  296  288  292 
 312  308  324  320  292  328  316  260  272  292 
 300  304  272  260  320  308  300  284  324  368 
 272  332  284  308  308  304  304  312  300  356 
 320  320  296  320  372  316  300  352  396  344 
 356  336  376  336  356  380  376  360  428  360 
 380  368  384  360  400  372  400  392  400  400 
 384  364  320  324  352  288  368  340  316  312 
 312  304  300  244  300  280  292  292  296  280 
 312  300  280  316  296  288  312  308  284  288 
 300  312  284  292  320  312  312  332  344  336 
 324  300  300  284  284  272  308  292  308  308 
 272  304  324  272  252  256  276  296  316  248 
 288  284  292  288  272  300  288  276  276  304 
 304  308  288  296  300  312  280  280  292  300 
 320  272  284  304  300  284  316  264  316  332 
 248  296  304  284  268  264  260  236  248  288 
 288  280  304  288  320  304  328  288  328  292 
 296  256  300  316  288  320  284  296  316  284 
 304  324  344  304  288  288  296  324  296  340 
 292  288  312  300  288  324  292  312  292  312 
 368  320  284  300  288  304  340  276  288  352 
 308  300  316  284  292  272  300  280  264  288 
 280  280  312  284  244  288  316  316  320  300 
 320  312  300  296  288  348  284  300  304  348 
 312  320  320  316  288  280  284  304  296  316 
 288  304  272  280  304  268  312  284  320  284 
 256  288  288  268  292  288  300  272  316  276 
 292  272  308  320  276  308  296  280  272  280 
 284  276  276  280  292  268  300  264  272  284 
 284  272  316  280  292  280  280  272  308  300 
 268  292  356  268  284  292  292  292  296  260 
 288  264  284  324  304  296  308  276  280  304 
 268  260  280  272  248  320  296  280  300  296 
 292  304  272  268  280  308  288  328  260  284 
 316  280  268  312  284  292  300  360  304  264 
 304  324  272  316  356  300  332  320  292  312 
 332  292  348  268  292  264  312  332  288  288 
 316  296  268  300  292  320  252  292  300  268 
 300  304  312  272  296  276  260  280  284  256 
 264  296  316  272  328  256  276  296  272  276 
 296  308  304  300  272  280  272  320  292  272 
 332  280  272  272  264  300  272  308  276  260 
 248  284  300  284  296  304  260  248  244  292 
 304  288  272  300  304  284  276  312  292  244 
 292  296  272  296  264  296  284  296  288  308 
 284  284  300  248  284  264  280  292  300  228 
 248  284  268  252  288  312  304  296  324  268 
 280  260  264  336  288  264  272  272  292  308 
 300  272  256  280  260  292  280  308  296  280 
 316  296  276  340  312  268  284  248  284  260 
 292  300  268  288  276  308  308  260  276  252 
 260  264  324  308  272  280  264  280  284  292 
 276  272  292  272  272  268  252  300  288  308 
 292  304  280  300  316  332  308  272  272  288 
 268  288  304  280  308  276  296  260  288  288 
 240  296  284  288  300  276  288  308  296  292 
 276  284  260  288  308  272  256  296  312  280 
 304  300  320  296  320  296  308  284  284  288 
 320  352  308  288  276  292  288  268  292  304 
 296  288  288  296  304  288  248  308  284  356 
 328  288  308  316  284  328  332  292  296  276 
 272  296  296  296  324  284  296  296  280  336 
 304  288  324  288  288  320  272  296  340  304 
 308  352  320  332  332  324  316  344  356  304 
 384  360  344  360  312  320  360  332  360  312 
 292  312  320  324  316  304  308  288  276  284 
 260  316  292  300  292  284  304  300  300  320 
 292  284  288  272  300  312  268  256  280  264 
 320  284  280  276  300  316  276  264  280  312 
 316  296  288  316  304  288  288  264  284  284 
 272  300  268  292  288  276  288  280  328  336 
 268  300  336  316  264  316  284  296  308  300 
 292  284  316  300  280  280  304  288  288  268 
 296  288  260  296  276  256  280  252  292  316 
 280  284  304  276  280  272  336  296  264  284 
 280  332  268  264  284  292  316  348  328  356 
 344  312  328  300  316  328  320  312  340  332 
 276  304  344  264  260  268  280  296  276  300 
 288  360  296  304  264  252  284  272  304  280 
 312  280  328  304  280  332  300  308  300  332 
 284  316  260  308  284  292  304  312  300  272 
 276  316  292  276  272  328  308  316  296  312 
 344  308  296  304  352  280  272  292  316  312 
 336  300  324  316  316  304  272  296  308  284 
 320  260  288  288  288  308  276  260  280  308 
 264  288  268  308  296  312  260  284  280  288 
 296  288  284  284  260  248  276  324  268  288 
 248  280  296  268  316  260  244  268  240  276 
 308  292  264  316  276  268  276  276  304  256 
 296  280  280  296  264  288  288  256  304  280 
 256  256  272  264  288  292  296  240  272  316 
 300  268  272  288  300  276  272  296  264  300 
 300  284  268  300  264  264  304  300  324  292 
 272  284  312  308  272  276  280  300  276  292 
 312  292  288  300  320  320  264  292  280  320 
 320  296  292  288  304  332  288  312  288  312 
 276  308  288  324  292  268  260  264  284  324 
 244  292  292  284  256  300  300  284  248  296 
 296  320  300  276  284  272  276  276  304  272 
 240  292  280  312  300  304  256  296  300  280 
 320  264  284  248  300  248  292  312  288  312 
 256  292  284  300  280  296  264  292  308  316 
 292  292  308  340  252  272  260  276  276  280 
 300  288  324  260  312  296  284  316  284  304 
 332  260  292  308  272  280  284  312  256  328 
 288  272  288  316  296  320  308  272  268  268 
 292  332  276  284  292  296  292  316  240  312 
 288  304  272  324  276  264  308  304  284  256 
 272  260  240  264  284  336  300  288  256  316 
 284  268  284  300  260  324  288  332  284  300 
 296  312  288  292  260  320  280  312  276  280 
 268  300  328  352  288  332  292  328  308  316 
 308  336  312  336  308  328  260  288  296  276 
 272  292  304  296  340  296  256  292  260  292 
 272  284  308  272  296  272  292  300  256  308 
 256  276  280  260  280  280  292  308  264  300 
 316  264  284  264  272  300  244  244  300  344 
 288  268  252  280  244  268  296  292  260  312 
 312  316  296  300  268  300  328  248  272  308 
 276  316  260  284  288  312  276  276  300  352 
 228  316  312  284  316  324  292  300  352  288 
 300  276  260  292  312  308  276  264  360  276 
 288  304  276  280  272  300  272  272  260  296 
 316  280  324  300  248  272  280  304  280  276 
 312  288  284  308  284  300  296  280  284  272 
 268  292  308  292  260  300  292  284  284  300 
 280  296  284  288  324  264  316  324  292  288 
 336  328  308  288  332  344  300  348  316  320 
 260  308  296  336  312  276  300  332  316  284 
 300  264  288  308  292  272  304  272  272  308 
 272  296  260  304  304  288  316  276  252  336 
 284  268  280  280  256  308  312  268  260  308 
 288  276  292  368  280  276  276  288  296  276 
 280  288  280  276  288  296  292  288  300  304 
 268  300  296  280  268  284  280  260  284  272 
 304  272  244  288  272  296  276  280  300  284 
 256  340  324  264  276  268  308  292  300  288 
 300  292  320  272  320  280  292  308  256  300 
 276  304  312  284  316  272  248  296  284  252 
 284  248  288  284  264  248  288  304  248  304 
 264  288  256  252  272  348  288  284  248  264 
 284  276  312  296  280  276  308  320  280  248 
 292  300  296  300  276  328  276  308  268  300 
 280  304  284  248  264  248  260  248  272  300 
 284  256  320  288  256  304  268  280  256  288 
 312  284  272  276  272  288  304  284  296  264 
 284 